<?xml version="1.0" encoding="utf-8"?>
<!-- Generator: Adobe Illustrator 16.0.0, SVG Export Plug-In . SVG Version: 6.00 Build 0)  -->
<!DOCTYPE svg PUBLIC "-//W3C//DTD SVG 1.1//EN" "http://www.w3.org/Graphics/SVG/1.1/DTD/svg11.dtd">
<svg version="1.1" id="logo" xmlns="http://www.w3.org/2000/svg" xmlns:xlink="http://www.w3.org/1999/xlink" x="0px" y="0px"
	 width="128px" height="41.25px" viewBox="0 0 128 41.25" enable-background="new 0 0 128 41.25" xml:space="preserve">
<path fill="none" stroke="#FFFFFF" stroke-miterlimit="10" d="M61.821,28.775V5.895h10.296c3.792,0,6.866,3.074,6.866,6.866
	c0,3.791-3.074,6.864-6.866,6.864H61.821"/>
<line fill="none" stroke="#FFFFFF" stroke-miterlimit="10" x1="0.865" y1="6.094" x2="0.865" y2="28.959"/>
<line fill="none" stroke="#FFFFFF" stroke-miterlimit="10" x1="39.87" y1="29.407" x2="55.112" y2="29.407"/>
<polyline fill="none" stroke="#FFFFFF" stroke-miterlimit="10" points="55.112,6.543 39.421,6.543 39.421,20.44 52.422,20.44 "/>
<polyline fill="none" stroke="#FFFFFF" stroke-miterlimit="10" points="8.935,34.339 8.935,5.953 31.8,28.835 31.8,1.163 "/>
<path fill="none" stroke="#FFFFFF" stroke-miterlimit="10" d="M95.233,6.356c-6.318,0-11.331,4.92-11.331,11.239
	c0,6.32,5.178,11.745,11.496,11.745s11.497-4.864,11.497-11.14H95.014"/>
<line fill="none" stroke="#FFFFFF" stroke-miterlimit="10" x1="118.637" y1="19.683" x2="108.727" y2="5.952"/>
<path fill="none" stroke="#FFFFFF" stroke-miterlimit="10" d="M127.031,5.949l-14.935,24.416c-3.657,5.98-10.162,9.626-17.172,9.626
	c-6.808,0-13.152-3.438-16.867-9.141l-7.313-11.225"/>
</svg>
